PS2
…
To accomplish what is asked in question 1:

# Filter the rows by measles disease only
# Exclude states Hawaii and Alaska
# Remove the records where there were no weeks when data was reported

# Taking an average of counts of measles in all the states each year
avg <- us_contagious_diseases |> 
    filter(disease == "Measles" & !state %in% c("Hawaii", "Alaska") & weeks_reporting > 0) |>
    group_by(year) |>
    summarize(rate = sum(count/weeks_reporting * 52, na.rm=TRUE)/sum(population) * 10,000)
avg

# A tibble: 75 × 3
    year   rate   `0`
   <dbl>  <dbl> <dbl>
 1  1928 0.0432     0
 2  1929 0.0296     0
 3  1930 0.0333     0
 4  1931 0.0375     0
 5  1932 0.0325     0
 6  1933 0.0311     0
 7  1934 0.0609     0
 8  1935 0.0581     0
 9  1936 0.0236     0
10  1937 0.0246     0
# ℹ 65 more rows

# I get some strange "0" column - let's drop it to make the data cleaner
avg = subset(avg, select = c("year","rate"))
avg

# A tibble: 75 × 2
    year   rate
   <dbl>  <dbl>
 1  1928 0.0432
 2  1929 0.0296
 3  1930 0.0333
 4  1931 0.0375
 5  1932 0.0325
 6  1933 0.0311
 7  1934 0.0609
 8  1935 0.0581
 9  1936 0.0236
10  1937 0.0246
# ℹ 65 more rows
…
