PS3
…
           as_tibble() |> 
           select(-state) |>
           rename(state_name = NAME) |>
           pivot_longer(-state_name, names_to = "year", values_to = "population") |>
           mutate(year = str_remove(year, "POP_")) |>
           mutate(across(-state_name, as.numeric)) |>
           mutate(state = state.abb[match(state_name, state.name)]) |># R has abbrevs, no DC or PR though
           mutate(state = case_when(
             state_name == "District of Columbia" ~ "DC",
             state_name == "Puerto Rico" ~ "PR",
             .default = state  # otherwise case
           ))
population

# A tibble: 104 × 4
   state_name    year population state
   <chr>        <dbl>      <dbl> <chr>
 1 Oklahoma      2020    3962031 OK   
 2 Oklahoma      2021    3986639 OK   
 3 Nebraska      2020    1961455 NE   
 4 Nebraska      2021    1963692 NE   
 5 Hawaii        2020    1451911 HI   
 6 Hawaii        2021    1441553 HI   
 7 South Dakota  2020     887099 SD   
 8 South Dakota  2021     895376 SD   
 9 Tennessee     2020    6920119 TN   
10 Tennessee     2021    6975218 TN   
# ℹ 94 more rows
…
